INDEX VERSION 1.126+/home/emidstest03/suneetha/.metadata/.plugins/org.eclipse.jdt.core
3512161136.index
2744878784.index
3530540584.index
3883508318.index
174227274.index
2253745042.index
3485262699.index
3066711521.index
925982370.index
1089239932.index
1628687906.index
2359322674.index
821608291.index
502732891.index
813341167.index
3539432263.index
